
R HARD TEST: 

CLASS:          1       2       3       4       5       6       7       8       9      10      11 
guesses:    21930,  11585,  18995,  20453,  17143,  18634,  20784,  17498,  13654,  13760,  23564
solutions:  18000,  18000,  18000,  18000,  18000,  18000,  18000,  18000,  18000,  18000,  18000
precision:  0.683,  0.932,  0.924,  0.848,  0.861,  0.795,  0.697,  0.670,  0.711,  0.668,  0.713 (guesses that were correct)
recall:     0.833,  0.600,  0.975,  0.963,  0.820,  0.823,  0.804,  0.651,  0.539,  0.510,  0.934 (solutions correctly identified)
miss rate:  0.167,  0.400,  0.025,  0.037,  0.180,  0.177,  0.196,  0.349,  0.461,  0.490,  0.066
total accuracy:   0.7683		MSE: 31.398

(removing examples from test set that may have been training examples)
CLASS:          1       2       3       4       5       6       7       8       9      10      11 
guesses:    18637,   7678,  15395,  16853,  13545,  15072,  16409,  14015,  11013,  10962,  18821
solutions:  14400,  14400,  14400,  14400,  14400,  14400,  14400,  14400,  14400,  14400,  14400
precision:  0.628,  0.938,  0.906,  0.815,  0.824,  0.746,  0.666,  0.649,  0.685,  0.639,  0.702 (guesses that were correct)
recall:     0.812,  0.500,  0.968,  0.954,  0.775,  0.781,  0.758,  0.631,  0.524,  0.486,  0.917 (solutions correctly identified)
miss rate:  0.188,  0.500,  0.032,  0.046,  0.225,  0.219,  0.242,  0.369,  0.476,  0.514,  0.083
total accuracy:   0.7371		MSE: 31.368

(simulating near continuous examples "inf")
CLASS:         1      2      3      4      5      6      7      8      9      10      11 
guesses:    9849,  6166,  9672,  10303,  8640,  9457,  10599,  8900,  7039,  7172, 12203
solutions:  7324,  9360,  9232,   9335,  9096,  9143,   9407,  9204,  9220,  9348,  9331
precision: 0.660, 0.923, 0.911,  0.859, 0.864, 0.793,  0.710, 0.679, 0.718, 0.672, 0.712 (guesses that were correct)
recall:    0.887, 0.608, 0.955,  0.948, 0.820, 0.821,  0.800, 0.656, 0.548, 0.515, 0.931 (solutions correctly identified)
miss rate: 0.113, 0.392, 0.045,  0.052, 0.180, 0.179,  0.200, 0.344, 0.452, 0.485, 0.069
total accuracy:   0.7694		MSE: 30.339




THETA HARD TEST:

CLASS:          1       2       3       4       5       6       7       8       9      10      11      12 
guesses:    19518,  13191,  14547,  15866,  19978,  15095,  17097,  19796,  14333,  16865,  12206,  19508
solutions:  16500,  16500,  16500,  16500,  16500,  16500,  16500,  16500,  16500,  16500,  16500,  16500
precision:  0.822,  0.867,  0.763,  0.648,  0.661,  0.819,  0.830,  0.726,  0.685,  0.689,  0.866,  0.822 (guesses that were correct)
recall:     0.972,  0.693,  0.672,  0.623,  0.801,  0.749,  0.860,  0.871,  0.595,  0.704,  0.641,  0.972 (solutions correctly identified)
miss rate:  0.028,  0.307,  0.328,  0.377,  0.199,  0.251,  0.140,  0.129,  0.405,  0.296,  0.359,  0.028
total accuracy:   0.7627		MSE: 244.722

(removing examples from test set that may have been training examples)
CLASS:          1       2       3       4       5       6       7       8       9      10      11      12 
guesses:    16181,   9855,  11815,  12722,  16001,  11919,  13693,  15799,  11499,  13761,   8987,  16168
solutions:  13200,  13200,  13200,  13200,  13200,  13200,  13200,  13200,  13200,  13200,  13200,  13200
precision:  0.793,  0.841,  0.730,  0.628,  0.637,  0.787,  0.808,  0.711,  0.663,  0.653,  0.830,  0.793 (guesses that were correct)
recall:     0.972,  0.628,  0.654,  0.605,  0.772,  0.711,  0.838,  0.851,  0.577,  0.680,  0.565,  0.971 (solutions correctly identified)
miss rate:  0.028,  0.372,  0.346,  0.395,  0.228,  0.289,  0.162,  0.149,  0.423,  0.320,  0.435,  0.029
total accuracy:   0.7353		MSE: 245.127

(simulating near continuous examples "inf")
CLASS:         1      2      3      4      5      6      7      8      9     10     11     12 
guesses:    9731,  6645,  7340,  8212, 10019,  7582,  8658,  9972,  7267,  8525,  6230,  9819
solutions:  8234,  8373,  8311,  8381,  8321,  8274,  8356,  8352,  8243,  8479,  8400,  8276
precision: 0.826, 0.878, 0.763, 0.654, 0.675, 0.829, 0.833, 0.726, 0.678, 0.703, 0.871, 0.824 (guesses that were correct)
recall:    0.976, 0.697, 0.674, 0.641, 0.812, 0.760, 0.863, 0.867, 0.598, 0.707, 0.646, 0.977 (solutions correctly identified)
miss rate: 0.024, 0.303, 0.326, 0.359, 0.188, 0.240, 0.137, 0.133, 0.402, 0.293, 0.354, 0.023
total accuracy:   0.7678		MSE: 244.754



PHI HARD TEST:

CLASS:          1       2       3       4       5       6       7       8       9      10      11      12 
guesses:    19309,  12715,  14335,  20235,  16460,  14452,  17547,  20290,  17384,  12402,  13281,  19590
solutions:  16500,  16500,  16500,  16500,  16500,  16500,  16500,  16500,  16500,  16500,  16500,  16500
precision:  0.850,  0.881,  0.740,  0.616,  0.661,  0.676,  0.645,  0.584,  0.520,  0.696,  0.846,  0.826 (guesses that were correct)
recall:     0.994,  0.679,  0.643,  0.755,  0.659,  0.592,  0.686,  0.718,  0.548,  0.523,  0.681,  0.981 (solutions correctly identified)
miss rate:  0.006,  0.321,  0.357,  0.245,  0.341,  0.408,  0.314,  0.282,  0.452,  0.477,  0.319,  0.019
total accuracy:   0.7050		MSE: 246.935

(removing examples from test set that may have been training examples)
CLASS:          1       2       3       4       5       6       7       8       9      10      11      12 
guesses:    15865,   9411,  11496,  16210,  13442,  11515,  14201,  16164,  13883,  10207,  10049,  15957
solutions:  13200,  13200,  13200,  13200,  13200,  13200,  13200,  13200,  13200,  13200,  13200,  13200
precision:  0.826,  0.857,  0.696,  0.587,  0.630,  0.655,  0.625,  0.573,  0.511,  0.660,  0.822,  0.808 (guesses that were correct)
recall:     0.993,  0.611,  0.606,  0.721,  0.642,  0.572,  0.673,  0.701,  0.537,  0.510,  0.626,  0.977 (solutions correctly identified)
miss rate:  0.007,  0.389,  0.394,  0.279,  0.358,  0.428,  0.327,  0.299,  0.463,  0.490,  0.374,  0.023
total accuracy:   0.6807		MSE 247.425

(simulating near continuous examples "inf")
CLASS:         1      2      3      4      5      6      7      8      9     10     11     12 
guesses:    9662,  6549,  7220, 10118,  8280,  7581,  8988, 10207,  8848,  6117,  6653,  9777
solutions:  8409,  8272,  8531,  8114,  8226,  8551,  8329,  8343,  8360,  8273,  8272,  8320
precision: 0.865, 0.891, 0.769, 0.617, 0.662, 0.681, 0.637, 0.585, 0.527, 0.705, 0.851, 0.835 (guesses that were correct)
recall:    0.994, 0.705, 0.651, 0.769, 0.667, 0.604, 0.687, 0.716, 0.558, 0.521, 0.684, 0.981 (solutions correctly identified)
miss rate: 0.006, 0.295, 0.349, 0.231, 0.333, 0.396, 0.313, 0.284, 0.442, 0.479, 0.316, 0.019
total accuracy:   0.7113		MSE: 246.972